%YAML 1.1
%TAG !u! tag:unity3d.com,2011:
--- !u!1 &6895195501924946939
GameObject:
  m_ObjectHideFlags: 0
  m_CorrespondingSourceObject: {fileID: 0}
  m_PrefabInstance: {fileID: 0}
  m_PrefabAsset: {fileID: 0}
  serializedVersion: 6
  m_Component:
  - component: {fileID: 6895195501924946917}
  - component: {fileID: 6895195501924946938}
  m_Layer: 0
  m_Name: Game Settings
  m_TagString: Untagged
  m_Icon: {fileID: 0}
  m_NavMeshLayer: 0
  m_StaticEditorFlags: 0
  m_IsActive: 1
--- !u!4 &6895195501924946917
Transform:
  m_ObjectHideFlags: 0
  m_CorrespondingSourceObject: {fileID: 0}
  m_PrefabInstance: {fileID: 0}
  m_PrefabAsset: {fileID: 0}
  m_GameObject: {fileID: 6895195501924946939}
  m_LocalRotation: {x: 0, y: 0, z: 0, w: 1}
  m_LocalPosition: {x: 0, y: 0, z: 0}
  m_LocalScale: {x: 1, y: 1, z: 1}
  m_ConstrainProportionsScale: 0
  m_Children: []
  m_Father: {fileID: 0}
  m_RootOrder: 0
  m_LocalEulerAnglesHint: {x: 0, y: 0, z: 0}
--- !u!114 &6895195501924946938
MonoBehaviour:
  m_ObjectHideFlags: 0
  m_CorrespondingSourceObject: {fileID: 0}
  m_PrefabInstance: {fileID: 0}
  m_PrefabAsset: {fileID: 0}
  m_GameObject: {fileID: 6895195501924946939}
  m_Enabled: 1
  m_EditorHideFlags: 0
  m_Script: {fileID: 11500000, guid: 5ea5117ad384acf4881f65ebf3a3b361, type: 3}
  m_Name: 
  m_EditorClassIdentifier: 
  racerColors:
  - {fileID: 2100000, guid: 075fffe11401b8447bcc70155e662c67, type: 2}
  - {fileID: 2100000, guid: 78061d28de6561a4497ec75dc60d1819, type: 2}
  - {fileID: 2100000, guid: 50d4b6afdcc52914aa7aae98e1ce5a21, type: 2}
  - {fileID: 2100000, guid: b9bf2ce594782f04a8dd6c6280bcc7ba, type: 2}
  - {fileID: 2100000, guid: 075670461c04e854d9dd5c306698c993, type: 2}
  - {fileID: 2100000, guid: ca60f536724dac3448e5e888eb5c1392, type: 2}
  - {fileID: 2100000, guid: d08a1001b01915544a4b35355e11d8d6, type: 2}
  - {fileID: 2100000, guid: bc4e79360fa2ead469ac87d127ed6c07, type: 2}
